dv/fpdiv_tb.vcd
$date
	Mon Nov 10 14:11:23 2025
$end
$version
	Icarus Verilog
$end
$timescale
	1ps
$end
$scope module tb_fpdiv $end
$var wire 16 ! y [15:0] $end
$var wire 1 " ready $end
$var parameter 32 # clk_period $end
$var parameter 32 $ rst_time $end
$var reg 1 % clk $end
$var reg 1 & en $end
$var reg 1 ' rst $end
$var reg 16 ( x1 [15:0] $end
$var reg 16 ) x2 [15:0] $end
$var real 1 * value1 $end
$var real 1 + value2 $end
$scope function dtobf16 $end
$var reg 64 , a_bits [63:0] $end
$var reg 8 - exp [7:0] $end
$var reg 9 . mant [8:0] $end
$var reg 12 / mant_grs [11:0] $end
$var reg 7 0 o_mant [6:0] $end
$var reg 1 1 s $end
$var real 1 2 a $end
$upscope $end
$scope module uut $end
$var wire 1 % clk $end
$var wire 1 & en $end
$var wire 1 3 q_s $end
$var wire 1 " ready $end
$var wire 1 ' rst $end
$var wire 16 4 x1 [15:0] $end
$var wire 16 5 x2 [15:0] $end
$var wire 16 6 y [15:0] $end
$var wire 8 7 sub_out [7:0] $end
$var wire 16 8 result [15:0] $end
$var wire 16 9 reg_q_out [15:0] $end
$var wire 16 : reg_b_out [15:0] $end
$var wire 16 ; reg_a_out [15:0] $end
$var wire 8 < mantisa_r [7:0] $end
$var wire 8 = exp_r [7:0] $end
$var wire 1 > end2 $end
$var wire 1 ? end1 $end
$var wire 1 @ done $end
$var wire 12 A div_out [11:0] $end
$var wire 8 B adder_out [7:0] $end
$var reg 8 C q_exp [7:0] $end
$var reg 11 D q_mant [10:0] $end
$scope module divider0 $end
$var wire 1 % clk $end
$var wire 12 E dividend [11:0] $end
$var wire 12 F divisor [11:0] $end
$var wire 1 @ done $end
$var wire 12 G quotient [11:0] $end
$var wire 1 ' rst $end
$var wire 13 H sub_out [12:0] $end
$var wire 1 ? start $end
$var wire 13 I remainder_mux_out [12:0] $end
$var wire 1 J ovf $end
$var wire 13 K input_mux_out [12:0] $end
$var wire 1 L carry $end
$var parameter 32 M N $end
$var parameter 32 N compute_state $end
$var parameter 32 O start_state $end
$var reg 1 P clr_counter $end
$var reg 1 Q clr_shift $end
$var reg 4 R counter [3:0] $end
$var reg 13 S divisor_reg [12:0] $end
$var reg 1 T en_counter $end
$var reg 1 U en_r $end
$var reg 1 V en_shift $end
$var reg 1 W en_y $end
$var reg 12 X quotient_shift_reg [11:0] $end
$var reg 13 Y remainder_reg [12:0] $end
$var reg 1 Z sel_rx $end
$var reg 1 [ state $end
$upscope $end
$scope module reg1en $end
$var wire 1 % clk $end
$var wire 1 & d $end
$var wire 1 \ en $end
$var wire 1 ' rst $end
$var parameter 32 ] N $end
$var reg 1 ? q $end
$upscope $end
$scope module reg2en $end
$var wire 1 % clk $end
$var wire 1 @ d $end
$var wire 1 ^ en $end
$var wire 1 ' rst $end
$var parameter 32 _ N $end
$var reg 1 > q $end
$upscope $end
$scope module rounder0 $end
$var wire 8 ` exp_i [7:0] $end
$var wire 11 a mant_i [10:0] $end
$var wire 8 b mant_shift_output [7:0] $end
$var wire 8 c mant_o [7:0] $end
$var wire 9 d mant_adder_output [8:0] $end
$var wire 8 e exp_o [7:0] $end
$var wire 8 f exp_adder_output [7:0] $end
$var reg 9 g mant_rounded [8:0] $end
$upscope $end
$scope module x1reg $end
$var wire 1 % clk $end
$var wire 16 h d [15:0] $end
$var wire 1 & en $end
$var wire 1 ' rst $end
$var parameter 32 i N $end
$var reg 16 j q [15:0] $end
$upscope $end
$scope module x2reg $end
$var wire 1 % clk $end
$var wire 16 k d [15:0] $end
$var wire 1 & en $end
$var wire 1 ' rst $end
$var parameter 32 l N $end
$var reg 16 m q [15:0] $end
$upscope $end
$scope module yreg $end
$var wire 1 % clk $end
$var wire 16 n d [15:0] $end
$var wire 1 @ en $end
$var wire 1 ' rst $end
$var parameter 32 o N $end
$var reg 16 p q [15:0] $end
$upscope $end
$upscope $end
$scope task apply_div $end
$var real 1 q a $end
$var real 1 r b $end
$upscope $end
$upscope $end
$enddefinitions $end
$comment Show the parameter values. $end
$dumpall
b10000 o
b10000 l
b10000 i
b1 _
b1 ]
b0 O
b1 N
b1100 M
b110010 $
b1010 #
$end
#0
$dumpvars
r0 r
r0 q
b0 p
b1111111111111111 n
b0 m
b0 k
b0 j
b0 h
b0 g
b1111111 f
b1111110 e
b1 d
b0 c
b0 b
b0 a
b1111110 `
1^
1\
0[
0Z
b0 Y
b0 X
0W
0V
0U
0T
b0 S
b0 R
0Q
0P
0L
b0 K
0J
b0 I
b0 H
b0 G
b100000000000 F
b100000000000 E
b0 D
b1111110 C
b1111111 B
b0 A
0@
0?
0>
b1111110 =
b0 <
b0 ;
b0 :
b0 9
b1111111111111111 8
b0 7
b0 6
b0 5
b0 4
03
r0 2
x1
bx 0
bx /
bx .
bx -
bx ,
r625.41 +
r45.83 *
b0 )
b0 (
1'
0&
0%
0"
b0 !
$end
#5000
1%
#10000
0%
#15000
1%
#20000
0%
#25000
1%
#30000
0%
#35000
1%
#40000
0%
#45000
1%
#50000
0%
1&
0'
#55000
b100000000000 K
1Z
1U
1W
1T
1V
1Q
1P
1?
1%
#60000
0%
#65000
b0 K
0P
0Q
0Z
0W
1[
b100000000000 Y
b0 H
b100000000000 S
1%
#70000
b100010000011100 )
b100010000011100 5
b100010000011100 k
b100001000110111 (
b100001000110111 4
b100001000110111 h
0%
b11100 0
b10011100 .
b10011100010 /
b10001000 -
01
b100000010000011100010110100011110101110000101000111101011100001 ,
r625.41 2
r625.41 r
r45.83 q
#75000
b1111010 =
b1111010 e
b1111011 f
b1111010 C
b1111010 `
b1 D
b1 a
b11110100000000 8
b11110100000000 n
b0 K
b101101110000 E
b100111000000 F
b1111011 B
b11111100 7
1L
b0 I
b100001000110111 ;
b100001000110111 j
b100010000011100 :
b100010000011100 m
b1 A
b1 G
b1 X
b1100000000000 H
b0 Y
b1 R
1%
#80000
0%
#85000
b10 D
b10 a
b10 R
b10 A
b10 G
b10 X
1%
#90000
0%
#95000
b100 D
b100 a
b100 A
b100 G
b100 X
b11 R
1%
#100000
0%
#105000
b11110100000001 8
b11110100000001 n
b1 <
b1 c
b1 g
b1 b
b10 d
b1000 D
b1000 a
b100 R
b1000 A
b1000 G
b1000 X
1%
#110000
0%
#115000
b11110100000010 8
b11110100000010 n
b10 <
b10 c
b10 g
b10 b
b11 d
b10000 D
b10000 a
b10000 A
b10000 G
b10000 X
b101 R
1%
#120000
0%
#125000
b11110100000100 8
b11110100000100 n
b100 <
b100 c
b100 g
b100 b
b101 d
b100000 D
b100000 a
b110 R
b100000 A
b100000 G
b100000 X
1%
#130000
0%
#135000
b11110100001000 8
b11110100001000 n
b1000 <
b1000 c
b1000 g
b1000 b
b1001 d
b1000000 D
b1000000 a
b1000000 A
b1000000 G
b1000000 X
b111 R
1%
#140000
0%
#145000
b11110100010000 8
b11110100010000 n
b10000 <
b10000 c
b10000 g
b10000 b
b10001 d
b10000000 D
b10000000 a
b1000 R
b10000000 A
b10000000 G
b10000000 X
1%
#150000
0%
#155000
b11110100100000 8
b11110100100000 n
b100000 <
b100000 c
b100000 g
b100000 b
b100001 d
b100000000 D
b100000000 a
b100000000 A
b100000000 G
b100000000 X
b1001 R
1%
#160000
0%
#165000
b11110101000000 8
b11110101000000 n
b1000000 <
b1000000 c
b1000000 g
b1000000 b
b1000001 d
b1000000000 D
b1000000000 a
b1010 R
b1000000000 A
b1000000000 G
b1000000000 X
1%
#170000
0%
#175000
b11110100000000 8
b11110100000000 n
b10000000 <
b10000000 c
b10000000 g
b10000000 b
b10000001 d
b10000000000 D
b10000000000 a
b10000000000 A
b10000000000 G
b10000000000 X
b1011 R
1%
#180000
0%
#185000
b11110110000000 8
b11110110000000 n
b1111011 =
b1111011 e
b1111100 f
b1111011 C
b1111011 `
1@
1J
b1100 R
b100000000000 A
b100000000000 G
b100000000000 X
1%
#190000
0%
#195000
b0 <
b0 c
b11110100000000 8
b11110100000000 n
b0 g
b0 b
b1 d
b101101110000 K
b1111010 =
b1111010 e
b0 D
b0 a
b1111011 f
b1111010 C
b1111010 `
1Z
1W
1Q
1P
b1100001000110111 (
b1100001000110111 4
b1100001000110111 h
0@
0J
b11100 0
b10011100 .
b10011100010 /
b10001000 -
01
b100000010000011100010110100011110101110000101000111101011100001 ,
r625.41 2
r-45.83 q
b0 A
b0 G
b0 X
0[
b1101 R
b11110110000000 !
b11110110000000 6
b11110110000000 9
b11110110000000 p
1"
1>
1%
#200000
0%
#205000
b1101100000 K
0P
0Q
0Z
0W
b1011110100000000 8
b1011110100000000 n
13
b110110000 I
0L
0"
0>
b0 R
1[
b101101110000 Y
b110110000 H
b100111000000 S
b1100001000110111 ;
b1100001000110111 j
b1100010000011100 )
b1100010000011100 5
b1100010000011100 k
b100001000110111 (
b100001000110111 4
b100001000110111 h
11
b11100 0
b10011100 .
b10011100010 /
b10001000 -
b1100000010000011100010110100011110101110000101000111101011100001 ,
r-625.41 2
r-625.41 r
r45.83 q
1%
#210000
0%
#215000
b1 D
b1 a
b11011000000 K
1L
b1101100000 I
b100001000110111 ;
b100001000110111 j
b1100010000011100 :
b1100010000011100 m
b1 A
b1 G
b1 X
b1100110100000 H
b1101100000 Y
b1 R
1%
#220000
0%
#225000
b10 D
b10 a
b110110000000 K
b11011000000 I
b10 R
b10 A
b10 G
b10 X
b1110100000000 H
b11011000000 Y
1%
#230000
0%
#235000
b100 D
b100 a
b11110000000 K
b1111000000 I
0L
b100 A
b100 G
b100 X
b1111000000 H
b110110000000 Y
b11 R
1%
#240000
0%
#245000
b1011110100000001 8
b1011110100000001 n
b1 <
b1 c
b1 g
b1 b
b10 d
b1001 D
b1001 a
b111100000000 K
1L
b11110000000 I
b100 R
b1001 A
b1001 G
b1001 X
b1110111000000 H
b11110000000 Y
1%
#250000
0%
#255000
b1011110100000010 8
b1011110100000010 n
b10 <
b10 c
b10 g
b10 b
b11 d
b10010 D
b10010 a
b101010000000 K
b10101000000 I
0L
b10010 A
b10010 G
b10010 X
b10101000000 H
b111100000000 Y
b101 R
1%
#260000
0%
#265000
b1011110100000101 8
b1011110100000101 n
b101 <
b101 c
b100 b
b101 d
b101 g
b100101 D
b100101 a
b110000000 K
b11000000 I
b110 R
b100101 A
b100101 G
b100101 X
b11000000 H
b101010000000 Y
1%
#270000
0%
#275000
b1011110100001001 8
b1011110100001001 n
b1001 <
b1001 c
b1001 b
b1010 d
b1001 g
b1001011 D
b1001011 a
b1100000000 K
1L
b110000000 I
b1001011 A
b1001011 G
b1001011 X
b1011111000000 H
b110000000 Y
b111 R
1%
#280000
0%
#285000
b1011110100010011 8
b1011110100010011 n
b10011 <
b10011 c
b10010 b
b10011 d
b10011 g
b10010110 D
b10010110 a
b11000000000 K
b1100000000 I
b1000 R
b10010110 A
b10010110 G
b10010110 X
b1100101000000 H
b1100000000 Y
1%
#290000
0%
#295000
b1011110100100110 8
b1011110100100110 n
b100110 <
b100110 c
b100101 b
b100110 g
b100110 d
b100101100 D
b100101100 a
b110000000000 K
b11000000000 I
b100101100 A
b100101100 G
b100101100 X
b1110001000000 H
b11000000000 Y
b1001 R
1%
#300000
0%
#305000
b1011110101001011 8
b1011110101001011 n
b1001011 <
b1001011 c
b1001011 b
b1001100 d
b1001011 g
b1001011000 D
b1001011000 a
b10010000000 K
b1001000000 I
0L
b1010 R
b1001011000 A
b1001011000 G
b1001011000 X
b1001000000 H
b110000000000 Y
1%
#310000
0%
#315000
b1011110100010110 8
b1011110100010110 n
b10010110 <
b10010110 c
b10010110 g
b10010110 b
b10010111 d
b10010110001 D
b10010110001 a
b100100000000 K
1L
b10010000000 I
b10010110001 A
b10010110001 G
b10010110001 X
b1101011000000 H
b10010000000 Y
b1011 R
1%
#320000
0%
#325000
b1011110110010110 8
b1011110110010110 n
b1111011 =
b1111011 e
b1111100 f
b1111011 C
b1111011 `
b1001000000000 K
1@
1J
b100100000000 I
b1100 R
b100101100010 A
b100101100010 G
b100101100010 X
b1111101000000 H
b100100000000 Y
1%
#330000
0%
#335000
b1011000 <
b1011000 c
b1011110101011000 8
b1011110101011000 n
b1011000 g
b1011000 b
b1011001 d
b1111010 =
b1111010 e
b1011000100 D
b1011000100 a
b1111011 f
b1111010 C
b1111010 `
1Z
1W
1Q
1P
b1100001000110111 (
b1100001000110111 4
b1100001000110111 h
b101101110000 K
0@
0J
b100001000000 I
0L
b11100 0
b10011100 .
b10011100010 /
b10001000 -
b1100000010000011100010110100011110101110000101000111101011100001 ,
r-625.41 2
r-45.83 q
b1011000100 A
b1011000100 G
b1011000100 X
b100001000000 H
b1001000000000 Y
0[
b1101 R
b1011110110010110 !
b1011110110010110 6
b1011110110010110 9
b1011110110010110 p
1"
1>
1%
#340000
0%
#345000
b0 <
b0 c
b0 g
b0 b
b1101100000 K
b1 d
0P
0Q
0Z
0W
b0 D
b0 a
b11110100000000 8
b11110100000000 n
03
b110110000 I
0"
0>
b0 R
1[
b0 A
b0 G
b0 X
b110110000 H
b101101110000 Y
b1100001000110111 ;
b1100001000110111 j
b0 )
b0 5
b0 k
b100001000110111 (
b100001000110111 4
b100001000110111 h
b110111 0
b10110111 .
b10110111010 /
b10000100 -
01
b100000001000110111010100011110101110000101000111101011100001010 ,
r0 2
r0 r
r45.83 q
1%
#350000
0%
#355000
b10 =
b10 e
b11 f
b10 C
b10 `
b1 D
b1 a
b111111110000000 8
b111111110000000 n
b11011000000 K
b100000000000 F
b11 B
b10000100 7
1L
b1101100000 I
b100001000110111 ;
b100001000110111 j
b0 :
b0 m
b1 A
b1 G
b1 X
b1100110100000 H
b1101100000 Y
b1 R
1%
#360000
0%
#365000
b10 D
b10 a
b110110000000 K
b11011000000 I
b10 R
b10 A
b10 G
b10 X
b1110100000000 H
b11011000000 Y
1%
#370000
0%
#375000
b100 D
b100 a
b11110000000 K
b1111000000 I
0L
b100 A
b100 G
b100 X
b1111000000 H
b110110000000 Y
b11 R
1%
#380000
0%
#385000
b1 <
b1 c
b1 g
b1 b
b10 d
b1001 D
b1001 a
b111100000000 K
1L
b11110000000 I
b100 R
b1001 A
b1001 G
b1001 X
b1110111000000 H
b11110000000 Y
1%
#390000
0%
#395000
b10 <
b10 c
b10 g
b10 b
b11 d
b10010 D
b10010 a
b101010000000 K
b10101000000 I
0L
b10010 A
b10010 G
b10010 X
b10101000000 H
b111100000000 Y
b101 R
1%
#400000
0%
#405000
b101 <
b101 c
b100 b
b101 d
b101 g
b100101 D
b100101 a
b110000000 K
b11000000 I
b110 R
b100101 A
b100101 G
b100101 X
b11000000 H
b101010000000 Y
1%
#410000
0%
#415000
b1001 <
b1001 c
b1001 b
b1010 d
b1001 g
b1001011 D
b1001011 a
b1100000000 K
1L
b110000000 I
b1001011 A
b1001011 G
b1001011 X
b1011111000000 H
b110000000 Y
b111 R
1%
#420000
0%
#425000
b10011 <
b10011 c
b10010 b
b10011 d
b10011 g
b10010110 D
b10010110 a
b11000000000 K
b1100000000 I
b1000 R
b10010110 A
b10010110 G
b10010110 X
b1100101000000 H
b1100000000 Y
1%
#430000
0%
#435000
b100110 <
b100110 c
b100101 b
b100110 g
b100110 d
b100101100 D
b100101100 a
b110000000000 K
b11000000000 I
b100101100 A
b100101100 G
b100101100 X
b1110001000000 H
b11000000000 Y
b1001 R
1%
#440000
0%
#445000
b1001011 <
b1001011 c
b1001011 b
b1001100 d
b1001011 g
b1001011000 D
b1001011000 a
b10010000000 K
b1001000000 I
0L
b1010 R
b1001011000 A
b1001011000 G
b1001011000 X
b1001000000 H
b110000000000 Y
1%
#450000
0%
#455000
b10010110 <
b10010110 c
b10010110 g
b10010110 b
b10010111 d
b10010110001 D
b10010110001 a
b100100000000 K
1L
b10010000000 I
b10010110001 A
b10010110001 G
b10010110001 X
b1101011000000 H
b10010000000 Y
b1011 R
1%
#460000
0%
#465000
b11 =
b11 e
b100 f
b11 C
b11 `
b1001000000000 K
1@
1J
b100100000000 I
b1100 R
b100101100010 A
b100101100010 G
b100101100010 X
b1111101000000 H
b100100000000 Y
1%
#470000
0%
#475000
b1011000 <
b1011000 c
b1011000 g
b1011000 b
b1011001 d
b10 =
b10 e
b1011000100 D
b1011000100 a
b11 f
b10 C
b10 `
1Z
1W
1Q
1P
b100010000011100 )
b100010000011100 5
b100010000011100 k
b0 (
b0 4
b0 h
b101101110000 K
0@
0J
b100001000000 I
0L
b11100 0
b10011100 .
b10011100010 /
b10001000 -
b100000010000011100010110100011110101110000101000111101011100001 ,
r625.41 2
r625.41 r
r0 q
b1011000100 A
b1011000100 G
b1011000100 X
b100001000000 H
b1001000000000 Y
0[
b1101 R
b111111110000000 !
b111111110000000 6
b111111110000000 9
b111111110000000 p
1"
1>
1%
#480000
0%
#485000
b0 <
b0 c
b0 g
b0 b
b1 d
b11110110 =
b11110110 e
0P
0Q
0Z
0W
b0 D
b0 a
b11110111 f
b11110110 C
b11110110 `
b0 8
b0 n
b11011100000 K
b100111000000 F
b100000000000 E
b1101110000 I
b11110111 B
b1111000 7
0"
0>
b0 R
1[
b0 A
b0 G
b0 X
b101101110000 Y
b1101110000 H
b100000000000 S
b100010000011100 :
b100010000011100 m
b0 ;
b0 j
b0 )
b0 5
b0 k
r0 2
r0 r
1%
#490000
0%
#495000
b1111110 =
b1111110 e
b1111111 f
b1111110 C
b1111110 `
b1 D
b1 a
b1111111111111111 8
b1111111111111111 n
b110111000000 K
b100000000000 F
b1111111 B
b0 7
1L
b11011100000 I
b0 :
b0 m
b1 A
b1 G
b1 X
b1111011100000 H
b11011100000 Y
b1 R
1%
#500000
0%
#505000
b10 D
b10 a
b101110000000 K
b10111000000 I
0L
b10 R
b10 A
b10 G
b10 X
b10111000000 H
b110111000000 Y
1%
#510000
0%
#515000
b1 <
b1 c
b1 g
b101 D
b101 a
b11100000000 K
b1110000000 I
b101 A
b101 G
b101 X
b1110000000 H
b101110000000 Y
b11 R
1%
#520000
0%
#525000
b1 <
b1 c
b1 b
b10 d
b1 g
b1011 D
b1011 a
b111000000000 K
1L
b11100000000 I
b100 R
b1011 A
b1011 G
b1011 X
b1111100000000 H
b11100000000 Y
1%
#530000
0%
#535000
b11 <
b11 c
b10 b
b11 d
b11 g
b10110 D
b10110 a
b110000000000 K
b11000000000 I
0L
b10110 A
b10110 G
b10110 X
b11000000000 H
b111000000000 Y
b101 R
1%
#540000
0%
#545000
b110 <
b110 c
b101 b
b110 g
b110 d
b101101 D
b101101 a
b100000000000 K
b10000000000 I
b110 R
b101101 A
b101101 G
b101101 X
b10000000000 H
b110000000000 Y
1%
#550000
0%
#555000
b1011 <
b1011 c
b1011 b
b1100 d
b1011 g
b1011011 D
b1011011 a
b0 K
b0 I
b1011011 A
b1011011 G
b1011011 X
b0 H
b100000000000 Y
b111 R
1%
#560000
0%
#565000
b10111 <
b10111 c
b10110 b
b10111 d
b10111 g
b10110111 D
b10110111 a
b0 K
1L
b0 I
b1000 R
b10110111 A
b10110111 G
b10110111 X
b1100000000000 H
b0 Y
1%
#570000
0%
#575000
b101110 <
b101110 c
b101101 b
b101110 g
b101110 d
b101101110 D
b101101110 a
b101101110 A
b101101110 G
b101101110 X
b1001 R
1%
#580000
0%
#585000
b1011100 <
b1011100 c
b1011011 b
b1011100 g
b1011100 d
b1011011100 D
b1011011100 a
b1010 R
b1011011100 A
b1011011100 G
b1011011100 X
1%
#590000
0%
#595000
b10110111 <
b10110111 c
b10110111 b
b10111000 d
b10110111 g
b10110111000 D
b10110111000 a
b10110111000 A
b10110111000 G
b10110111000 X
b1011 R
1%
#600000
0%
#605000
b1111111 =
b1111111 e
b10000000 f
b1111111 C
b1111111 `
1@
1J
b1100 R
b101101110000 A
b101101110000 G
b101101110000 X
1%
#610000
0%
#615000
b11011100 <
b11011100 c
b11011100 g
b11011100 b
b11011101 d
b100000000000 K
b1111110 =
b1111110 e
b11011100000 D
b11011100000 a
b1111111 f
b1111110 C
b1111110 `
1Z
1W
1Q
1P
b11111110110101 )
b11111110110101 5
b11111110110101 k
b100000001001001 (
b100000001001001 4
b100000001001001 h
0@
0J
b110101 0
b10110101 .
b10110101000 /
b1111111 -
b11111111110110101000001001000000101101111000000000110100011011 ,
r1.4142 2
r1.4142 r
r3.1416 q
b11011100000 A
b11011100000 G
b11011100000 X
0[
b1101 R
b1111111111111111 !
b1111111111111111 6
b1111111111111111 9
b1111111111111111 p
1"
1>
1%
#620000
0%
#625000
b0 <
b0 c
b0 g
b0 b
b1 d
b1111111 =
b1111111 e
0P
0Q
0Z
0W
b0 D
b0 a
b10000000 f
b1111111 C
b1111111 `
b11111110000000 8
b11111110000000 n
b0 K
b101101010000 F
b110010010000 E
b0 I
0L
b10000000 B
b1 7
0"
0>
b0 R
1[
b0 A
b0 G
b0 X
b0 H
b100000000000 Y
b11111110110101 :
b11111110110101 m
b100000001001001 ;
b100000001001001 j
1%
#630000
0%
#635000
b1 D
b1 a
b0 K
1L
b0 I
b1 A
b1 G
b1 X
b1100000000000 H
b0 Y
b1 R
1%
#640000
0%
#645000
b10 D
b10 a
b10 R
b10 A
b10 G
b10 X
1%
#650000
0%
#655000
b100 D
b100 a
b100 A
b100 G
b100 X
b11 R
1%
#660000
0%
#665000
b11111110000001 8
b11111110000001 n
b1 <
b1 c
b1 g
b1 b
b10 d
b1000 D
b1000 a
b100 R
b1000 A
b1000 G
b1000 X
1%
#670000
0%
#675000
b11111110000010 8
b11111110000010 n
b10 <
b10 c
b10 g
b10 b
b11 d
b10000 D
b10000 a
b10000 A
b10000 G
b10000 X
b101 R
1%
#680000
0%
#685000
b11111110000100 8
b11111110000100 n
b100 <
b100 c
b100 g
b100 b
b101 d
b100000 D
b100000 a
b110 R
b100000 A
b100000 G
b100000 X
1%
#690000
0%
#695000
b11111110001000 8
b11111110001000 n
b1000 <
b1000 c
b1000 g
b1000 b
b1001 d
b1000000 D
b1000000 a
b1000000 A
b1000000 G
b1000000 X
b111 R
1%
#700000
0%
#705000
b11111110010000 8
b11111110010000 n
b10000 <
b10000 c
b10000 g
b10000 b
b10001 d
b10000000 D
b10000000 a
b1000 R
b10000000 A
b10000000 G
b10000000 X
1%
#710000
0%
#715000
b11111110100000 8
b11111110100000 n
b100000 <
b100000 c
b100000 g
b100000 b
b100001 d
b100000000 D
b100000000 a
b100000000 A
b100000000 G
b100000000 X
b1001 R
1%
#720000
0%
#725000
b11111111000000 8
b11111111000000 n
b1000000 <
b1000000 c
b1000000 g
b1000000 b
b1000001 d
b1000000000 D
b1000000000 a
b1010 R
b1000000000 A
b1000000000 G
b1000000000 X
1%
#730000
0%
#735000
b11111110000000 8
b11111110000000 n
b10000000 <
b10000000 c
b10000000 g
b10000000 b
b10000001 d
b10000000000 D
b10000000000 a
b10000000000 A
b10000000000 G
b10000000000 X
b1011 R
1%
#740000
0%
#745000
b100000000000000 8
b100000000000000 n
b10000000 =
b10000000 e
b10000001 f
b10000000 C
b10000000 `
1@
1J
b1100 R
b100000000000 A
b100000000000 G
b100000000000 X
1%
#750000
0%
#755000
b0 <
b0 c
b11111110000000 8
b11111110000000 n
b0 g
b0 b
b1 d
b110010010000 K
b1111111 =
b1111111 e
b0 D
b0 a
b10000000 f
b1111111 C
b1111111 `
1Z
1W
1Q
1P
0@
0J
b0 A
b0 G
b0 X
0[
b1101 R
b100000000000000 !
b100000000000000 6
b100000000000000 9
b100000000000000 p
1"
1>
1%
#760000
0%
#765000
b1010000000 K
0P
0Q
0Z
0W
b101000000 I
0L
0"
0>
b0 R
1[
b110010010000 Y
b101000000 H
b101101010000 S
1%
#770000
0%
#775000
b1 D
b1 a
b10100000000 K
1L
b1010000000 I
b1 A
b1 G
b1 X
b1011100110000 H
b1010000000 Y
b1 R
1%
#780000
0%
#785000
b10 D
b10 a
b101000000000 K
b10100000000 I
b10 R
b10 A
b10 G
b10 X
b1100110110000 H
b10100000000 Y
1%
#790000
0%
#795000
b100 D
b100 a
b1010000000000 K
b101000000000 I
b100 A
b100 G
b100 X
b1111010110000 H
b101000000000 Y
b11 R
1%
#800000
0%
#805000
b11111110000001 8
b11111110000001 n
b1 <
b1 c
b1 g
b1 b
b10 d
b1000 D
b1000 a
b1000101100000 K
b100010110000 I
0L
b100 R
b1000 A
b1000 G
b1000 X
b100010110000 H
b1010000000000 Y
1%
#810000
0%
#815000
b11111110000010 8
b11111110000010 n
b10 <
b10 c
b10 g
b10 b
b11 d
b10001 D
b10001 a
b110000100000 K
b11000010000 I
b10001 A
b10001 G
b10001 X
b11000010000 H
b1000101100000 Y
b101 R
1%
#820000
0%
#825000
b11111110000100 8
b11111110000100 n
b100 <
b100 c
b100 g
b100 b
b101 d
b100011 D
b100011 a
b110100000 K
b11010000 I
b110 R
b100011 A
b100011 G
b100011 X
b11010000 H
b110000100000 Y
1%
