dv/fpmul_tb.vcd
$date
	Mon Nov 10 13:55:05 2025
$end
$version
	Icarus Verilog
$end
$timescale
	1ps
$end
$scope module tb_fpmul $end
$var wire 16 ! y [15:0] $end
$var wire 1 " ready $end
$var parameter 32 # clk_period $end
$var parameter 32 $ rst_time $end
$var reg 1 % clk $end
$var reg 1 & en $end
$var reg 1 ' rst $end
$var reg 16 ( x1 [15:0] $end
$var reg 16 ) x2 [15:0] $end
$var real 1 * value1 $end
$var real 1 + value2 $end
$scope function dtobf16 $end
$var reg 64 , a_bits [63:0] $end
$var reg 8 - exp [7:0] $end
$var reg 9 . mant [8:0] $end
$var reg 12 / mant_grs [11:0] $end
$var reg 7 0 o_mant [6:0] $end
$var reg 1 1 s $end
$var real 1 2 a $end
$upscope $end
$scope module uut $end
$var wire 1 % clk $end
$var wire 1 & en $end
$var wire 1 3 p_s $end
$var wire 1 " ready $end
$var wire 1 ' rst $end
$var wire 16 4 x1 [15:0] $end
$var wire 16 5 x2 [15:0] $end
$var wire 16 6 y [15:0] $end
$var wire 8 7 sub_out [7:0] $end
$var wire 55 8 seg_reg0_out [54:0] $end
$var wire 16 9 result [15:0] $end
$var wire 16 : reg_p_out [15:0] $end
$var wire 16 ; reg_b_out [15:0] $end
$var wire 16 < reg_a_out [15:0] $end
$var wire 8 = p_mant [7:0] $end
$var wire 8 > p_exp [7:0] $end
$var wire 16 ? mult_out [15:0] $end
$var wire 11 @ mant_grs [10:0] $end
$var wire 8 A exp_grs [7:0] $end
$var wire 1 B end3 $end
$var wire 1 C end2 $end
$var wire 1 D end1 $end
$var wire 8 E adder_out [7:0] $end
$scope module reg1en $end
$var wire 1 % clk $end
$var wire 1 & d $end
$var wire 1 F en $end
$var wire 1 ' rst $end
$var parameter 32 G N $end
$var reg 1 D q $end
$upscope $end
$scope module reg2en $end
$var wire 1 % clk $end
$var wire 1 D d $end
$var wire 1 H en $end
$var wire 1 ' rst $end
$var parameter 32 I N $end
$var reg 1 C q $end
$upscope $end
$scope module reg3en $end
$var wire 1 % clk $end
$var wire 1 C d $end
$var wire 1 J en $end
$var wire 1 ' rst $end
$var parameter 32 K N $end
$var reg 1 B q $end
$upscope $end
$scope module rounder0 $end
$var wire 8 L exp_i [7:0] $end
$var wire 11 M mant_i [10:0] $end
$var wire 8 N mant_shift_output [7:0] $end
$var wire 8 O mant_o [7:0] $end
$var wire 9 P mant_adder_output [8:0] $end
$var wire 8 Q exp_o [7:0] $end
$var wire 8 R exp_adder_output [7:0] $end
$var reg 9 S mant_rounded [8:0] $end
$upscope $end
$scope module seg_reg0 $end
$var wire 1 % clk $end
$var wire 55 T d [54:0] $end
$var wire 1 D en $end
$var wire 1 ' rst $end
$var parameter 32 U N $end
$var reg 55 V q [54:0] $end
$upscope $end
$scope module x1reg $end
$var wire 1 % clk $end
$var wire 16 W d [15:0] $end
$var wire 1 & en $end
$var wire 1 ' rst $end
$var parameter 32 X N $end
$var reg 16 Y q [15:0] $end
$upscope $end
$scope module x2reg $end
$var wire 1 % clk $end
$var wire 16 Z d [15:0] $end
$var wire 1 & en $end
$var wire 1 ' rst $end
$var parameter 32 [ N $end
$var reg 16 \ q [15:0] $end
$upscope $end
$scope module yreg $end
$var wire 1 % clk $end
$var wire 16 ] d [15:0] $end
$var wire 1 C en $end
$var wire 1 ' rst $end
$var parameter 32 ^ N $end
$var reg 16 _ q [15:0] $end
$upscope $end
$upscope $end
$scope task apply_mul $end
$var real 1 ` a $end
$var real 1 a b $end
$upscope $end
$upscope $end
$enddefinitions $end
$comment Show the parameter values. $end
$dumpall
b10000 ^
b10000 [
b10000 X
b110111 U
b1 K
b1 I
b1 G
b110010 $
b1010 #
$end
#0
$dumpvars
r0 a
r0 `
b0 _
b0 ]
b0 \
b0 Z
b0 Y
b0 W
b0 V
b100000010100000000000000 T
b0 S
b1 R
b0 Q
b1 P
b0 O
b0 N
b0 M
b0 L
1J
1H
1F
b0 E
0D
0C
0B
b0 A
b0 @
b100000000000000 ?
b0 >
b0 =
b0 <
b0 ;
b0 :
b0 9
b0 8
b10000001 7
b0 6
b0 5
b0 4
03
r0 2
x1
bx 0
bx /
bx .
bx -
bx ,
r625.41 +
r45.83 *
b0 )
b0 (
1'
0&
0%
0"
b0 !
$end
#5000
1%
#10000
0%
#15000
1%
#20000
0%
#25000
1%
#30000
0%
#35000
1%
#40000
0%
#45000
1%
#50000
0%
1&
0'
#55000
1D
1%
#60000
b100010000011100 )
b100010000011100 5
b100010000011100 Z
b100001000110111 (
b100001000110111 4
b100001000110111 W
0%
b11100 0
b10011100 .
b10011100010 /
b10001000 -
01
b100000010000011100010110100011110101110000101000111101011100001 ,
r625.41 2
r625.41 a
r45.83 `
#65000
b10000000 =
b10000000 O
b10000000 S
b10000000 N
b10000001 P
b10000001 >
b10000001 Q
b110111110000100 ?
b100001000110111100010000011100100011010110111110000100 T
b10000000000 @
b10000000000 M
b10000010 R
b10000001 A
b10000001 L
b10001101 7
b1100 E
1C
b100000010100000000000000 8
b100000010100000000000000 V
b100010000011100 ;
b100010000011100 \
b100001000110111 <
b100001000110111 Y
1%
#70000
0%
#75000
b1100001000110111 (
b1100001000110111 4
b1100001000110111 W
b11011111 =
b11011111 O
b11011111 S
b11011111 N
b100011011011111 9
b100011011011111 ]
b11100000 P
b10001101 >
b10001101 Q
b11011111000 @
b11011111000 M
b10001110 R
b10001101 A
b10001101 L
b11100 0
b10011100 .
b10011100010 /
b10001000 -
01
b100000010000011100010110100011110101110000101000111101011100001 ,
r625.41 2
r-45.83 `
b100001000110111100010000011100100011010110111110000100 8
b100001000110111100010000011100100011010110111110000100 V
1"
1B
1%
#80000
0%
#85000
b1100001000110111100010000011100100011010110111110000100 T
13
b100011011011111 !
b100011011011111 6
b100011011011111 :
b100011011011111 _
b1100001000110111 <
b1100001000110111 Y
b1100010000011100 )
b1100010000011100 5
b1100010000011100 Z
b100001000110111 (
b100001000110111 4
b100001000110111 W
11
b11100 0
b10011100 .
b10011100010 /
b10001000 -
b1100000010000011100010110100011110101110000101000111101011100001 ,
r-625.41 2
r-625.41 a
r45.83 `
1%
#90000
0%
#95000
b1100011011011111 9
b1100011011011111 ]
b100001000110111 <
b100001000110111 Y
b1100010000011100 ;
b1100010000011100 \
b1100001000110111100010000011100100011010110111110000100 8
b1100001000110111100010000011100100011010110111110000100 V
b1100001000110111 (
b1100001000110111 4
b1100001000110111 W
b11100 0
b10011100 .
b10011100010 /
b10001000 -
b1100000010000011100010110100011110101110000101000111101011100001 ,
r-625.41 2
r-45.83 `
1%
#100000
0%
#105000
b100001000110111100010000011100100011010110111110000100 T
03
b1100011011011111 !
b1100011011011111 6
b1100011011011111 :
b1100011011011111 _
b1100001000110111 <
b1100001000110111 Y
b100001000110111 )
b100001000110111 5
b100001000110111 Z
b0 (
b0 4
b0 W
b110111 0
b10110111 .
b10110111010 /
b10000100 -
01
b100000001000110111010100011110101110000101000111101011100001010 ,
r45.83 2
r45.83 a
r0 `
1%
#110000
0%
#115000
b100011011011111 9
b100011011011111 ]
b101101110000000 ?
b100001000110111000001010101101110000000 T
b101 7
b10000100 E
b0 <
b0 Y
b100001000110111 ;
b100001000110111 \
b100001000110111100010000011100100011010110111110000100 8
b100001000110111100010000011100100011010110111110000100 V
b0 )
b0 5
b0 Z
b100001000110111 (
b100001000110111 4
b100001000110111 W
r0 2
r0 a
r45.83 `
1%
#120000
0%
#125000
b10110111 =
b10110111 O
b10110111 S
b10110111 N
b10111000 P
b0 9
b0 ]
b101 >
b101 Q
b101101110000000 ?
b100001000110111000000000000000000001010101101110000000 T
b10110111000 @
b10110111000 M
b110 R
b101 A
b101 L
b101 7
b10000100 E
b100011011011111 !
b100011011011111 6
b100011011011111 :
b100011011011111 _
b100001000110111000001010101101110000000 8
b100001000110111000001010101101110000000 V
b0 ;
b0 \
b100001000110111 <
b100001000110111 Y
b0 (
b0 4
b0 W
r0 `
1%
#130000
0%
#135000
b100000000000000 ?
b100000010100000000000000 T
b0 9
b0 ]
b10000001 7
b0 E
b0 <
b0 Y
b100001000110111000000000000000000001010101101110000000 8
b100001000110111000000000000000000001010101101110000000 V
b0 !
b0 6
b0 :
b0 _
b11111110110101 )
b11111110110101 5
b11111110110101 Z
b100000001001001 (
b100000001001001 4
b100000001001001 W
b110101 0
b10110101 .
b10110101000 /
b1111111 -
b11111111110110101000001001000000101101111000000000110100011011 ,
r1.4142 2
r1.4142 a
r3.1416 `
1%
#140000
0%
#145000
b10000000 =
b10000000 O
b10000000 S
b10000000 N
b10000001 P
b10000001 >
b10000001 Q
b1000111000011101 ?
b100000001001001011111110110101100000001000111000011101 T
b10000000000 @
b10000000000 M
b10000010 R
b10000001 A
b10000001 L
b10000000 7
b11111111 E
b100000010100000000000000 8
b100000010100000000000000 V
b11111110110101 ;
b11111110110101 \
b100000001001001 <
b100000001001001 Y
b100000100001100 )
b100000100001100 5
b100000100001100 Z
b1100000000100000 (
b1100000000100000 4
b1100000000100000 W
b1100 0
b10001100 .
b10001100000 /
b10000010 -
01
b100000000100001100000000000000000000000000000000000000000000000 ,
r8.75 2
r8.75 a
r-2.5 `
1%
#150000
0%
#155000
b10001110 =
b10001110 O
b10001110 S
b10001110 N
b100000010001110 9
b100000010001110 ]
b10001111 P
b101011110000000 ?
b1100000000100000100000100001100100000110101011110000000 T
13
b10001110000 @
b10001110000 M
b10000011 7
b10 E
b1100000000100000 <
b1100000000100000 Y
b100000100001100 ;
b100000100001100 \
b100000001001001011111110110101100000001000111000011101 8
b100000001001001011111110110101100000001000111000011101 V
b11110110000000 )
b11110110000000 5
b11110110000000 Z
b11111000000000 (
b11111000000000 4
b11111000000000 W
b0 0
b10000000 .
b10000000000 /
b1111011 -
b11111110110000000000000000000000000000000000000000000000000000 ,
r0.0625 2
r0.0625 a
r0.125 `
1%
#160000
0%
#165000
b10101111 =
b10101111 O
b10101111 S
b10101111 N
b1100000110101111 9
b1100000110101111 ]
b10110000 P
b10000011 >
b10000011 Q
b100000000000000 ?
b11111000000000011110110000000011110000100000000000000 T
b10101111000 @
b10101111000 M
b10000100 R
b10000011 A
b10000011 L
03
b1111000 7
b11110111 E
b100000010001110 !
b100000010001110 6
b100000010001110 :
b100000010001110 _
b1100000000100000100000100001100100000110101011110000000 8
b1100000000100000100000100001100100000110101011110000000 V
b11110110000000 ;
b11110110000000 \
b11111000000000 <
b11111000000000 Y
1%
#170000
0%
#175000
b10000000 =
b10000000 O
b10000000 S
b10000000 N
b11110000000000 9
b11110000000000 ]
b10000001 P
b1111000 >
b1111000 Q
b10000000000 @
b10000000000 M
b1111001 R
b1111000 A
b1111000 L
b11111000000000011110110000000011110000100000000000000 8
b11111000000000011110110000000011110000100000000000000 V
b1100000110101111 !
b1100000110101111 6
b1100000110101111 :
b1100000110101111 _
1%
#180000
0%
#185000
b11110000000000 !
b11110000000000 6
b11110000000000 :
b11110000000000 _
1%
